module kindhome.io/tailscale

go 1.21

require tailscale.com v1.54.1

require (
	filippo.io/edwards25519 v1.0.0 // indirect
	github.com/akutz/memconn v0.1.0 // indirect
	github.com/alexbrainman/sspi v0.0.0-20231016080023-1a75b4708caa // indirect
	github.com/aws/aws-sdk-go-v2 v1.21.0 // indirect
	github.com/aws/aws-sdk-go-v2/config v1.18.42 // indirect
	github.com/aws/aws-sdk-go-v2/credentials v1.13.40 // indirect
	github.com/aws/aws-sdk-go-v2/feature/ec2/imds v1.13.11 // indirect
	github.com/aws/aws-sdk-go-v2/internal/configsources v1.1.41 // indirect
	github.com/aws/aws-sdk-go-v2/internal/endpoints/v2 v2.4.35 // indirect
	github.com/aws/aws-sdk-go-v2/internal/ini v1.3.43 // indirect
	github.com/aws/aws-sdk-go-v2/service/internal/presigned-url v1.9.35 // indirect
	github.com/aws/aws-sdk-go-v2/service/ssm v1.38.0 // indirect
	github.com/aws/aws-sdk-go-v2/service/sso v1.14.1 // indirect
	github.com/aws/aws-sdk-go-v2/service/ssooidc v1.17.1 // indirect
	github.com/aws/aws-sdk-go-v2/service/sts v1.22.0 // indirect
	github.com/aws/smithy-go v1.14.2 // indirect
	github.com/coreos/go-iptables v0.7.0 // indirect
	github.com/coreos/go-systemd/v22 v22.5.0 // indirect
	github.com/dblohm7/wingoes v0.0.0-20230929194252-e994401fc077 // indirect
	github.com/digitalocean/go-smbios v0.0.0-20180907143718-390a4f403a8e // indirect
	github.com/fxamacker/cbor/v2 v2.5.0 // indirect
	github.com/go-ole/go-ole v1.3.0 // indirect
	github.com/godbus/dbus/v5 v5.1.1-0.20230522191255-76236955d466 // indirect
	github.com/golang/groupcache v0.0.0-20210331224755-41bb18bfe9da // indirect
	github.com/google/btree v1.1.2 // indirect
	github.com/google/go-cmp v0.5.9 // indirect
	github.com/google/nftables v0.1.1-0.20230115205135-9aa6fdf5a28c // indirect
	github.com/google/uuid v1.3.1 // indirect
	github.com/gorilla/csrf v1.7.1 // indirect
	github.com/gorilla/securecookie v1.1.1 // indirect
	github.com/hdevalence/ed25519consensus v0.1.0 // indirect
	github.com/illarion/gonotify v1.0.1 // indirect
	github.com/insomniacslk/dhcp v0.0.0-20230908212754-65c27093e38a // indirect
	github.com/jmespath/go-jmespath v0.4.0 // indirect
	github.com/josharian/native v1.1.1-0.20230202152459-5c7d0dd6ab86 // indirect
	github.com/jsimonetti/rtnetlink v1.3.5 // indirect
	github.com/klauspost/compress v1.17.0 // indirect
	github.com/kortschak/wol v0.0.0-20200729010619-da482cc4850a // indirect
	github.com/mdlayher/genetlink v1.3.2 // indirect
	github.com/mdlayher/netlink v1.7.2 // indirect
	github.com/mdlayher/sdnotify v1.0.0 // indirect
	github.com/mdlayher/socket v0.5.0 // indirect
	github.com/miekg/dns v1.1.56 // indirect
	github.com/mitchellh/go-ps v1.0.0 // indirect
	github.com/pierrec/lz4/v4 v4.1.18 // indirect
	github.com/pkg/errors v0.9.1 // indirect
	github.com/safchain/ethtool v0.3.0 // indirect
	github.com/tailscale/certstore v0.1.1-0.20231020161753-77811a65f4ff // indirect
	github.com/tailscale/go-winio v0.0.0-20231025203758-c4f33415bf55 // indirect
	github.com/tailscale/golang-x-crypto v0.0.0-20230713185742-f0b76a10a08e // indirect
	github.com/tailscale/goupnp v1.0.1-0.20210804011211-c64d0f06ea05 // indirect
	github.com/tailscale/hujson v0.0.0-20221223112325-20486734a56a // indirect
	github.com/tailscale/netlink v1.1.1-0.20211101221916-cabfb018fe85 // indirect
	github.com/tailscale/web-client-prebuilt v0.0.0-20231114171715-25f8d12b3c2d // indirect
	github.com/tailscale/wireguard-go v0.0.0-20231101022006-db7604d1aa90 // indirect
	github.com/tcnksm/go-httpstat v0.2.0 // indirect
	github.com/u-root/uio v0.0.0-20230305220412-3e8cd9d6bf63 // indirect
	github.com/vishvananda/netlink v1.2.1-beta.2 // indirect
	github.com/vishvananda/netns v0.0.4 // indirect
	github.com/x448/float16 v0.8.4 // indirect
	go4.org/mem v0.0.0-20220726221520-4f986261bf13 // indirect
	go4.org/netipx v0.0.0-20230824141953-6213f710f925 // indirect
	golang.org/x/crypto v0.14.0 // indirect
	golang.org/x/exp v0.0.0-20230905200255-921286631fa9 // indirect
	golang.org/x/mod v0.12.0 // indirect
	golang.org/x/net v0.17.0 // indirect
	golang.org/x/sync v0.3.0 // indirect
	golang.org/x/sys v0.13.0 // indirect
	golang.org/x/term v0.13.0 // indirect
	golang.org/x/text v0.13.0 // indirect
	golang.org/x/time v0.3.0 // indirect
	golang.org/x/tools v0.13.0 // indirect
	golang.zx2c4.com/wintun v0.0.0-20230126152724-0fa3db229ce2 // indirect
	golang.zx2c4.com/wireguard/windows v0.5.3 // indirect
	gvisor.dev/gvisor v0.0.0-20230928000133-4fe30062272c // indirect
	inet.af/peercred v0.0.0-20210906144145-0893ea02156a // indirect
	nhooyr.io/websocket v1.8.7 // indirect
)
